// Jest Snapshot v1, https://goo.gl/fbAQLP

exports[`test on searchbox the search box is rendered correctly 1`] = `
"<div style={{...}}>
  <input type=\\"text\\" id=\\"searchbox\\" className=\\"form-control\\" placeholder=\\"Search for Name or Artist\\" value={[undefined]} onChange={[Function]} />
</div>"
`;
